%YAML 1.1
%TAG !u! tag:unity3d.com,2011:
--- !u!1 &1538072687647888645
GameObject:
  m_ObjectHideFlags: 0
  m_CorrespondingSourceObject: {fileID: 0}
  m_PrefabInstance: {fileID: 0}
  m_PrefabAsset: {fileID: 0}
  serializedVersion: 6
  m_Component:
  - component: {fileID: 8839441706051209798}
  - component: {fileID: 2476020959292321026}
  - component: {fileID: 4411266692848610549}
  m_Layer: 0
  m_Name: Spot Light
  m_TagString: Untagged
  m_Icon: {fileID: 0}
  m_NavMeshLayer: 0
  m_StaticEditorFlags: 0
  m_IsActive: 1
--- !u!4 &8839441706051209798
Transform:
  m_ObjectHideFlags: 0
  m_CorrespondingSourceObject: {fileID: 0}
  m_PrefabInstance: {fileID: 0}
  m_PrefabAsset: {fileID: 0}
  m_GameObject: {fileID: 1538072687647888645}
  serializedVersion: 2
  m_LocalRotation: {x: 0.7071068, y: 0, z: 0, w: 0.7071068}
  m_LocalPosition: {x: 0, y: -0.24, z: 0}
  m_LocalScale: {x: 1, y: 1, z: 1}
  m_ConstrainProportionsScale: 0
  m_Children: []
  m_Father: {fileID: 6242635322873497011}
  m_LocalEulerAnglesHint: {x: 90, y: 0, z: 0}
--- !u!108 &2476020959292321026
Light:
  m_ObjectHideFlags: 0
  m_CorrespondingSourceObject: {fileID: 0}
  m_PrefabInstance: {fileID: 0}
  m_PrefabAsset: {fileID: 0}
  m_GameObject: {fileID: 1538072687647888645}
  m_Enabled: 1
  serializedVersion: 10
  m_Type: 0
  m_Shape: 0
  m_Color: {r: 1, g: 1, b: 1, a: 1}
  m_Intensity: 3
  m_Range: 20
  m_SpotAngle: 132.90182
  m_InnerSpotAngle: 122.029625
  m_CookieSize: 10
  m_Shadows:
    m_Type: 2
    m_Resolution: -1
    m_CustomResolution: -1
    m_Strength: 1
    m_Bias: 0.05
    m_NormalBias: 0.4
    m_NearPlane: 0.2
    m_CullingMatrixOverride:
      e00: 1
      e01: 0
      e02: 0
      e03: 0
      e10: 0
      e11: 1
      e12: 0
      e13: 0
      e20: 0
      e21: 0
      e22: 1
      e23: 0
      e30: 0
      e31: 0
      e32: 0
      e33: 1
    m_UseCullingMatrixOverride: 0
  m_Cookie: {fileID: 0}
  m_DrawHalo: 0
  m_Flare: {fileID: 0}
  m_RenderMode: 0
  m_CullingMask:
    serializedVersion: 2
    m_Bits: 4294967295
  m_RenderingLayerMask: 1
  m_Lightmapping: 4
  m_LightShadowCasterMode: 0
  m_AreaSize: {x: 1, y: 1}
  m_BounceIntensity: 1
  m_ColorTemperature: 6570
  m_UseColorTemperature: 0
  m_BoundingSphereOverride: {x: 0, y: 0, z: 0, w: 0}
  m_UseBoundingSphereOverride: 0
  m_UseViewFrustumForShadowCasterCull: 1
  m_ShadowRadius: 0
  m_ShadowAngle: 0
--- !u!114 &4411266692848610549
MonoBehaviour:
  m_ObjectHideFlags: 0
  m_CorrespondingSourceObject: {fileID: 0}
  m_PrefabInstance: {fileID: 0}
  m_PrefabAsset: {fileID: 0}
  m_GameObject: {fileID: 1538072687647888645}
  m_Enabled: 1
  m_EditorHideFlags: 0
  m_Script: {fileID: 11500000, guid: 474bcb49853aa07438625e644c072ee6, type: 3}
  m_Name: 
  m_EditorClassIdentifier: 
  m_Version: 3
  m_UsePipelineSettings: 1
  m_AdditionalLightsShadowResolutionTier: 2
  m_LightLayerMask: 1
  m_RenderingLayers: 1
  m_CustomShadowLayers: 0
  m_ShadowLayerMask: 1
  m_ShadowRenderingLayers: 1
  m_LightCookieSize: {x: 1, y: 1}
  m_LightCookieOffset: {x: 0, y: 0}
  m_SoftShadowQuality: 0
--- !u!1001 &6597533551668318076
PrefabInstance:
  m_ObjectHideFlags: 0
  serializedVersion: 2
  m_Modification:
    serializedVersion: 3
    m_TransformParent: {fileID: 3379120468044413060}
    m_Modifications:
    - target: {fileID: 949536107396110063, guid: 4f5fea46d0c567446b768005952642f8,
        type: 3}
      propertyPath: m_Name
      value: BA_Ceiling Light_01
      objectReference: {fileID: 0}
    - target: {fileID: 949536107396532943, guid: 4f5fea46d0c567446b768005952642f8,
        type: 3}
      propertyPath: m_LocalPosition.x
      value: 0
      objectReference: {fileID: 0}
    - target: {fileID: 949536107396532943, guid: 4f5fea46d0c567446b768005952642f8,
        type: 3}
      propertyPath: m_LocalPosition.y
      value: 3.8999977
      objectReference: {fileID: 0}
    - target: {fileID: 949536107396532943, guid: 4f5fea46d0c567446b768005952642f8,
        type: 3}
      propertyPath: m_LocalPosition.z
      value: 0
      objectReference: {fileID: 0}
    - target: {fileID: 949536107396532943, guid: 4f5fea46d0c567446b768005952642f8,
        type: 3}
      propertyPath: m_LocalRotation.w
      value: 1
      objectReference: {fileID: 0}
    - target: {fileID: 949536107396532943, guid: 4f5fea46d0c567446b768005952642f8,
        type: 3}
      propertyPath: m_LocalRotation.x
      value: -0
      objectReference: {fileID: 0}
    - target: {fileID: 949536107396532943, guid: 4f5fea46d0c567446b768005952642f8,
        type: 3}
      propertyPath: m_LocalRotation.y
      value: -0
      objectReference: {fileID: 0}
    - target: {fileID: 949536107396532943, guid: 4f5fea46d0c567446b768005952642f8,
        type: 3}
      propertyPath: m_LocalRotation.z
      value: -0
      objectReference: {fileID: 0}
    - target: {fileID: 949536107396532943, guid: 4f5fea46d0c567446b768005952642f8,
        type: 3}
      propertyPath: m_LocalEulerAnglesHint.x
      value: 0
      objectReference: {fileID: 0}
    - target: {fileID: 949536107396532943, guid: 4f5fea46d0c567446b768005952642f8,
        type: 3}
      propertyPath: m_LocalEulerAnglesHint.y
      value: 0
      objectReference: {fileID: 0}
    - target: {fileID: 949536107396532943, guid: 4f5fea46d0c567446b768005952642f8,
        type: 3}
      propertyPath: m_LocalEulerAnglesHint.z
      value: 0
      objectReference: {fileID: 0}
    m_RemovedComponents: []
    m_RemovedGameObjects: []
    m_AddedGameObjects:
    - targetCorrespondingSourceObject: {fileID: 949536107396532943, guid: 4f5fea46d0c567446b768005952642f8,
        type: 3}
      insertIndex: -1
      addedObject: {fileID: 8839441706051209798}
    m_AddedComponents: []
  m_SourcePrefab: {fileID: 100100000, guid: 4f5fea46d0c567446b768005952642f8, type: 3}
--- !u!4 &6242635322873497011 stripped
Transform:
  m_CorrespondingSourceObject: {fileID: 949536107396532943, guid: 4f5fea46d0c567446b768005952642f8,
    type: 3}
  m_PrefabInstance: {fileID: 6597533551668318076}
  m_PrefabAsset: {fileID: 0}
--- !u!1001 &8894916864928912099
PrefabInstance:
  m_ObjectHideFlags: 0
  serializedVersion: 2
  m_Modification:
    serializedVersion: 3
    m_TransformParent: {fileID: 0}
    m_Modifications:
    - target: {fileID: 6166584487648029287, guid: cc2c18e189d423749bcb27809650683d,
        type: 3}
      propertyPath: m_LocalPosition.x
      value: 53.418602
      objectReference: {fileID: 0}
    - target: {fileID: 6166584487648029287, guid: cc2c18e189d423749bcb27809650683d,
        type: 3}
      propertyPath: m_LocalPosition.y
      value: 28.51289
      objectReference: {fileID: 0}
    - target: {fileID: 6166584487648029287, guid: cc2c18e189d423749bcb27809650683d,
        type: 3}
      propertyPath: m_LocalPosition.z
      value: 3.2811537
      objectReference: {fileID: 0}
    - target: {fileID: 6166584487648029287, guid: cc2c18e189d423749bcb27809650683d,
        type: 3}
      propertyPath: m_LocalRotation.w
      value: 1
      objectReference: {fileID: 0}
    - target: {fileID: 6166584487648029287, guid: cc2c18e189d423749bcb27809650683d,
        type: 3}
      propertyPath: m_LocalRotation.x
      value: -0
      objectReference: {fileID: 0}
    - target: {fileID: 6166584487648029287, guid: cc2c18e189d423749bcb27809650683d,
        type: 3}
      propertyPath: m_LocalRotation.y
      value: -0
      objectReference: {fileID: 0}
    - target: {fileID: 6166584487648029287, guid: cc2c18e189d423749bcb27809650683d,
        type: 3}
      propertyPath: m_LocalRotation.z
      value: -0
      objectReference: {fileID: 0}
    - target: {fileID: 6166584487648029287, guid: cc2c18e189d423749bcb27809650683d,
        type: 3}
      propertyPath: m_LocalEulerAnglesHint.x
      value: 0
      objectReference: {fileID: 0}
    - target: {fileID: 6166584487648029287, guid: cc2c18e189d423749bcb27809650683d,
        type: 3}
      propertyPath: m_LocalEulerAnglesHint.y
      value: 0
      objectReference: {fileID: 0}
    - target: {fileID: 6166584487648029287, guid: cc2c18e189d423749bcb27809650683d,
        type: 3}
      propertyPath: m_LocalEulerAnglesHint.z
      value: 0
      objectReference: {fileID: 0}
    - target: {fileID: 6166584487648327239, guid: cc2c18e189d423749bcb27809650683d,
        type: 3}
      propertyPath: m_Name
      value: Int_FFK_01_Ceiling_01 Variant
      objectReference: {fileID: 0}
    m_RemovedComponents: []
    m_RemovedGameObjects: []
    m_AddedGameObjects:
    - targetCorrespondingSourceObject: {fileID: 6166584487648029287, guid: cc2c18e189d423749bcb27809650683d,
        type: 3}
      insertIndex: -1
      addedObject: {fileID: 6242635322873497011}
    m_AddedComponents: []
  m_SourcePrefab: {fileID: 100100000, guid: cc2c18e189d423749bcb27809650683d, type: 3}
--- !u!4 &3379120468044413060 stripped
Transform:
  m_CorrespondingSourceObject: {fileID: 6166584487648029287, guid: cc2c18e189d423749bcb27809650683d,
    type: 3}
  m_PrefabInstance: {fileID: 8894916864928912099}
  m_PrefabAsset: {fileID: 0}
